{
    "variables": {
        "project_id": "pdes-production",
        "pdes_family": "centos-7-pdes-bastion",
        "family": "centos-7",
        "user": "eidast",
        "region": "us-central1",
        "zone": "us-central1-b",
        "credentials": "../../../../gl-secrets/pdes-production-7cc942fa4db1.json",
        "playbook": "../../pdes-playbooks/infra-base/bastion-production.yaml"
    },
    "builders": [
        {
            "type": "googlecompute",
            "account_file": "{{ user `credentials` }}",
            "project_id": "{{ user `project_id` }}",
            "source_image_family": "{{ user `family` }}",
            "image_family": "{{ user `pdes_family` }}",
            "ssh_username": "{{ user `user` }}",
            "zone": "{{ user `zone` }}",
            "image_name": "bastion-pdes-{{timestamp}}",
            "disk_size": "10",
            "image_description": "Bastion Centos Machine Image"
        }
    ],
    "provisioners": [
        {
            "type": "shell",
            "inline": [
                "sudo yum -y install ansible"
            ]
        },
        {
            "type": "ansible-local",
            "playbook_file": "{{ user `playbook` }}"
        }
    ]
}